C:\main\lerning\gitProject\consolChat\src\main\java\ru\console\chat\server\Server.java
C:\main\lerning\gitProject\consolChat\src\main\java\ru\console\chat\client\Client.java
C:\main\lerning\gitProject\consolChat\src\main\java\ru\console\chat\main\Main.java
C:\main\lerning\gitProject\consolChat\src\main\java\ru\console\chat\main\Const.java
